<?xml version="1.0" encoding="UTF-8"?>
<svg width="168px" height="146px" viewBox="0 0 168 146" version="1.1" xmlns="http://www.w3.org/2000/svg" xmlns:xlink="http://www.w3.org/1999/xlink">
    <!-- Generator: Sketch 50.2 (55047) - http://www.bohemiancoding.com/sketch -->
    <title>icon-service-tendering-and-assessment</title>
    <desc>Created with Sketch.</desc>
    <defs></defs>
    <g id="Page-2" stroke="none" stroke-width="1" fill="none" fill-rule="evenodd">
        <g id="icon-service-tendering-and-assessment">
            <path d="M24.9,40.8 L0,40.8 L0,25.7 C0,18.8 5.6,13.2 12.5,13.2 C15.2,13.2 17.5,13.9 19.5,15.3 C22.7,17.5 25,21.3 25,25.7 L25,40.8 L24.9,40.8 Z" id="Shape" fill="#4A403D" fill-rule="nonzero"></path>
            <path d="M132.4,13.4 L132.4,131.9 L46.3,131.9 C45.5,131.9 44.9,132.6 44.9,133.3 C44.9,137.2 43.1,140.7 40.3,143 C38.2,144.7 35.5,145.8 32.5,145.8 L32.4,145.8 C25.5,145.8 19.9,140.2 19.9,133.3 L19.9,42.5 L19.9,26 C19.9,25.4 19.9,24.7 19.8,24.2 C19.8,24.2 19.8,24.1 19.8,23.9 C19.7,23.5 19.7,22.9 19.5,22.5 C19.5,22.4 19.4,22.2 19.4,22.1 C19.3,21.7 19.1,21.3 19,20.8 C19,20.7 18.9,20.5 18.9,20.4 C18.6,19.8 18.5,19.3 18.2,18.9 C18.1,18.3 17.6,17.8 17.4,17.4 C17.4,17.3 17.3,17.3 17.3,17.1 C17,16.7 16.7,16.3 16.5,16 C16.5,15.9 16.4,15.7 16.2,15.6 C15.9,15.3 15.6,15 15.4,14.8 C15.3,14.8 15.1,14.7 15,14.5 C14.7,14.2 14.4,13.9 14,13.7 C13.9,13.7 13.9,13.6 13.7,13.6 L46.2,13.6 C62.5,13.4 112,13.4 132.4,13.4 Z" id="Shape" fill="#F7DBCB" fill-rule="nonzero"></path>
            <path d="M154.4,131.9 C153.7,139.6 147,145.8 138.9,145.8 C139.1,145.8 32.3,145.8 32.1,145.8 C36.7,142.8 39.7,137.7 40.2,131.9 L154.4,131.9 Z" id="Shape" fill="#DD5E00" fill-rule="nonzero"></path>
            <path d="M34.2,50.3 L119.9,50.3" id="Shape" stroke="#FF7700" stroke-width="0.5"></path>
            <path d="M34.2,64.5 L119.9,64.5" id="Shape" stroke="#FF7700" stroke-width="0.5"></path>
            <circle id="Oval" fill="#000000" fill-rule="nonzero" opacity="0.1" cx="129.7" cy="38.8" r="33.4"></circle>
            <circle id="Oval" fill="#4A403D" fill-rule="nonzero" cx="133.9" cy="33.4" r="33.4"></circle>
            <path d="M34.2,79.7 L119.9,79.7" id="Shape" stroke="#FF7700" stroke-width="0.5"></path>
            <path d="M34.2,93.8 L119.9,93.8" id="Shape" stroke="#FF7700" stroke-width="0.5"></path>
            <path d="M34.2,108.5 L119.9,108.5" id="Shape" stroke="#FF7700" stroke-width="0.5"></path>
            <path d="M34.2,122.7 L119.9,122.7" id="Shape" stroke="#FF7700" stroke-width="0.5"></path>
            <g id="Group" transform="translate(116.000000, 18.000000)" fill-rule="nonzero">
                <path d="M35.4,11.3 L24.8,0.7 C24.7,0.6 24.6,0.6 24.5,0.6 C24.4,0.6 24.3,0.6 24.2,0.7 L21.6,3.3 C21.4,3.5 21.4,3.8 21.6,4 L32.2,14.6 C32.4,14.8 32.7,14.8 32.9,14.6 L35.5,12 C35.6,11.8 35.6,11.5 35.4,11.3 Z" id="Shape" fill="#F7DBCB"></path>
                <path d="M21.2,6.3 C21,6.4 19.4,6.9 18.3,8 L15,11.3 C14.4,11.9 14.5,12.7 15,13.3 C15.6,13.9 16.4,13.9 17,13.3 L19.6,10.7 C20.1,10.2 21,10.2 21.6,10.7 L28.4,17.5 C29.2,16.4 29.8,15.2 29.9,15 L21.2,6.3 Z" id="Shape" fill="#FF7700"></path>
                <g id="Shape">
                    <path d="M11.7,0.7 C11.6,0.6 11.5,0.6 11.4,0.6 C11.3,0.6 11.2,0.7 11.1,0.7 L0.5,11.3 C0.3,11.5 0.3,11.8 0.5,12 L3.1,14.6 C3.3,14.8 3.6,14.8 3.8,14.6 L14.3,4 C14.5,3.8 14.5,3.5 14.3,3.3 L11.7,0.7 Z" fill="#FF7700"></path>
                    <path d="M20.9,11.3 C20.7,11.1 20.4,11.1 20.2,11.3 L17.6,13.9 C16.7,14.8 15.2,14.8 14.3,13.9 C13.4,13 13.4,11.5 14.3,10.6 L17.2,7.7 C16.2,6.8 15,6.4 14.7,6.2 L5.9,15 C6,15.4 6.6,16.8 7.7,17.9 C8.4,17.8 9.1,18 9.7,18.6 C10.2,19.1 10.4,19.9 10.3,20.6 C11,20.5 11.7,20.7 12.3,21.2 C12.8,21.7 13,22.5 12.9,23.2 C13.6,23.1 14.3,23.3 14.9,23.8 C15.4,24.3 15.6,25.1 15.6,25.8 C16.3,25.7 17,25.9 17.6,26.4 C18.1,26.9 18.3,27.7 18.2,28.4 L19.5,29.7 C20.1,30.3 20.9,30.3 21.5,29.7 C22.1,29.1 22.1,28.3 21.5,27.7 L18.2,24.4 C18,24.2 18,23.9 18.2,23.7 C18.4,23.5 18.7,23.5 18.9,23.7 C18.9,23.7 18.9,23.7 18.9,23.7 L22.2,27 C22.8,27.6 23.6,27.6 24.2,27 C24.8,26.4 24.8,25.6 24.2,25 L20.9,21.7 C20.7,21.5 20.7,21.2 20.9,21 C21.1,20.8 21.4,20.8 21.6,21 C21.6,21 21.6,21 21.6,21 L24.9,24.3 C25.5,24.9 26.3,24.9 26.9,24.3 C27.5,23.7 27.5,22.9 26.9,22.3 C26.9,22.3 26.9,22.3 26.9,22.3 L23.6,19 C23.4,18.8 23.4,18.5 23.6,18.3 C23.8,18.1 24.1,18.1 24.3,18.3 C24.3,18.3 24.3,18.3 24.3,18.3 L27.6,21.6 C28.2,22.2 29,22.2 29.6,21.6 C30.2,21 30.2,20.2 29.6,19.6 L28.3,18.3 L26.3,16.3 L20.9,11.3 Z" fill="#F7DBCB"></path>
                </g>
                <path d="M16.9,27.2 C16.6,26.9 16.3,26.8 15.9,26.8 C15.5,26.8 15.2,26.9 14.9,27.2 L14.2,27.9 C13.6,28.5 13.6,29.3 14.2,29.9 C14.8,30.5 15.6,30.4 16.2,29.9 L16.9,29.2 C17.5,28.6 17.5,27.7 16.9,27.2 Z" id="Shape" fill="#FF7700"></path>
                <path d="M9,19.2 C8.7,18.9 8.4,18.8 8,18.8 C7.6,18.8 7.3,18.9 7,19.2 L6.3,19.9 C5.7,20.5 5.7,21.3 6.3,21.9 C6.9,22.5 7.7,22.4 8.3,21.9 L9,21.2 C9.6,20.7 9.6,19.8 9,19.2 Z" id="Shape" fill="#FF7700"></path>
                <path d="M11.7,21.9 C11.4,21.6 11.1,21.5 10.7,21.5 C10.3,21.5 10,21.6 9.7,21.9 L9,22.6 C8.4,23.2 8.4,24 9,24.6 C9.6,25.2 10.4,25.2 11,24.6 L11.7,23.9 C12.2,23.3 12.2,22.4 11.7,21.9 Z" id="Shape" fill="#FF7700"></path>
                <path d="M14.3,24.5 C14,24.2 13.7,24.1 13.3,24.1 C12.9,24.1 12.6,24.2 12.3,24.5 L11.6,25.2 C11,25.8 11,26.6 11.6,27.2 C12.2,27.8 13,27.7 13.6,27.2 L14.3,26.5 C14.9,25.9 14.9,25.1 14.3,24.5 Z" id="Shape" fill="#FF7700"></path>
            </g>
        </g>
    </g>
</svg>